{
    "name": "Adrian",
    "lastName": "Salinas Basave",
    "nationality": "Mexican/Spanish",
    "height": "171cm / 5'7\"",
    "age": 29,
    "birthday": "1989 Dec 17",
    "hometown": "Monterrey, Mexico",
    "timezone": "-6:00 (CST)",
    "undergrad": "Civil engineering",
    "interests": [
        "Music",
        "Soccer",
        "Economy",
        "AI",
        "Statistics"
    ],
    "non_professional_skills": [
        "Guitar",
        "Bass"
    ],
    "pro_skills": [
        "Vue.js",
        "DB Architecture",
        "Statistics",
        "Javascript/NodeJS",
        "GraphQL",
        "Firebase"
    ]
}